{
    "reports": [
        {
            "id": "report-1",
            "title": "Title of Report",
            "active-step": 1,
            "completed": false,
            "form-steps": [
                {
                    "title": "Incident Logistics",
                    "inputs": [
                        { 
                            "title": "Date of Incident",
                            "type": "date",
                            "value": ""
                        },
                        { 
                            "title": "Time of Incident",
                            "type": "time",
                            "value": ""
                        },
                        { 
                            "title": "Reported Late?",
                            "type": "switch",
                            "value": "",
                            "optional": true,
                            "default": false,
                            "optionalFields": [
                                { "title": "Why Reported Late?", "type": "textarea", "value": "" },
                                { "title": "When Reported", "type": "date", "value": "" },
                                { "title": "Hour Minute", "type": "time", "value": "" }
                            ]
                        }
                    ]
                },
                {
                    "title": "Basic Details",
                    "inputs": [
                        { 
                            "type": "radio",
                            "options": [
                                {"label": "Environmental", "value": "environmantal"},
                                {"label": "Health & Safety", "value": "healthsafety"}
                            ], "value": "" 
                        },
                        { "title": "Category",
                            "type": "dropdown",
                            "options": [
                                {"label": "Item 1", "value": "item-1"},
                                {"label": "Item 2", "value": "item-2"}
                            ],
                            "value": ""
                        },
                        { 
                            "title": "Incident Type",
                            "type": "dropdown",
                            "options": [
                                {"label": "Item 1", "value": "item-1"},
                                {"label": "Item 2", "value": "item-2"}],
                                "value": ""
                        },
                        { 
                            "title": "Sub Category",
                            "type": "dropdown",
                            "options": [
                                {"label": "Item 1", "value": "item-1"},
                                {"label": "Item 2", "value": "item-2"}],
                                "value": "" 
                        },
                        {
                            "title": "Site",
                            "type": "text",
                            "value": ""
                        },
                        { 
                            "title": "Contract",
                            "type": "text",
                            "value": "" 
                        },
                        { 
                            "title": "Location",
                            "type": "dropdown",
                            "options": [
                                {"label": "Item 1", "value": "item-1"},
                                {"label": "Item 2", "value": "item-2"}
                            ],
                            "value": ""
                        },
                        {
                            "title": "Location Description",
                            "type": "textarea",
                            "value": ""
                        },
                        { 
                            "title": "Incident Area Safe to Return to Work?",
                            "type": "switch",
                            "value": "",
                            "optional": true,
                            "default": false,
                            "optionalFields": [
                                { "title": "Why?", "type": "textarea", "value": "" }
                            ]
                        }
                    ]
                },
                {
                    "title": "More Details",
                    "inputs": []
                },
                {
                    "title": "Activity Log",
                    "inputs": []
                },
                {
                    "title": "Investigation",
                    "inputs": []
                }
            ]
        }
    ]
}